{
    "target" : "RobotVoiceSpeaker.bin",
    "platform" : "X86_64",
    "compiler" : "/usr/bin/g++",
    "buildPath" : "./build",
    "debugger" : "/usr/bin/gdb",
    "buildOptions" : ["-pipe","-g","-std=gnu++11","-W","-fPIC"],
    "sourcesPaths" : [
        "../SpecialK/LibSkFlat",
        "../SpecialK/LibSkCore",
        "../SpecialK/LibSkAudio",
        "../SpecialK/LibSkMultimedia"
    ],
    "includeOptPaths" : [],
    "dynamicDeps" : [],

    "defines" : [
        "-DENABLE_SKAPP",
        "-DSPECIALK_APPLICATION",
        "-DENABLE_AES",
        "-DENABLE_XML",
        "-DENABLE_HTTP",
        "-DENABLE_SSL",
        "-DENABLE_AUDIO",
        "-DENABLE_AUDIOENCLIBS",
        "-DENABLE_TEXT_TO_SPEECH",
        "-DENABLE_FFTW3LIB"
    ],

    "libs" : [
        "-lpthread",
        "-lm",
        "-lz",
        "-lssl",
        "-lcrypto",
        "-lfftw3",
        "-logg",
        "-lvorbis",
        "-lvorbisenc",
        "-lespeak-ng"
    ]
}
