{
    "phoneme" : "ɒ",
    "blendJawRange" : 29,
    "blendSyncRange" : 39,
    "blendTwistRange" : 52,
    "blendLipRange" : 24,
    "blendWidthRange" : 17,
    "blendExpressRange" : 48,
    "blendSymRange" : 0,
    "blendTongueRange" : 55,
    "valid" : true
}